{
  "project_info": {
    "project_number": "496262196694",
    "firebase_url": "https://rnproject-3c753.firebaseio.com",
    "project_id": "rnproject-3c753",
    "storage_bucket": "rnproject-3c753.appspot.com"
  },
  "client": [
    {
      "client_info": {
        "mobilesdk_app_id": "1:496262196694:android:8d5067e9ff6b15d2",
        "android_client_info": {
          "package_name": "com.proto.protothree"
        }
      },
      "oauth_client": [
        {
          "client_id": "496262196694-h8t9t84822rqhsp6aj5lh4s3ep7t5830.apps.googleusercontent.com",
          "client_type": 3
        }
      ],
      "api_key": [
        {
          "current_key": "AIzaSyBadyWDlBNVoOlhFSoFjB8SsPArBlIqlas"
        }
      ],
      "services": {
        "analytics_service": {
          "status": 1
        },
        "appinvite_service": {
          "status": 1,
          "other_platform_oauth_client": []
        },
        "ads_service": {
          "status": 2
        }
      }
    }
  ],
  "configuration_version": "1"
}